EDUC 640
…
```r
lb7 <- lb7 %>% 
  separate(condition, into = c("condition", "study_time"), sep = "_")
lb7
```

```
## # A tibble: 48 x 4
##       ID condition study_time total
##    <dbl> <chr>     <chr>      <dbl>
##  1     1 mem       30             7
##  2     1 mem       60             7
##  3     1 mem       180            8
##  4     1 mne       30            16
##  5     1 mne       60            16
##  6     1 mne       180           24
##  7     2 mem       30             3
##  8     2 mem       60            11
##  9     2 mem       180           14
## 10     2 mne       30             7
## # … with 38 more rows
```
…
